%YAML 1.1
%TAG !u! tag:unity3d.com,2011:
--- !u!1045 &1
EditorBuildSettings:
  m_ObjectHideFlags: 0
  serializedVersion: 2
  m_Scenes:
  - enabled: 1
    path: Assets/Scenes/preload.unity
    guid: 668b27911d5b12d489970a286fc7db9e
  - enabled: 1
    path: Assets/Scenes/splash.unity
    guid: d02d37611d424b34b843543e07c85eb4
  - enabled: 1
    path: Assets/Scenes/game.unity
    guid: 3663769801ab6544aa646ea902303a2f
  m_configObjects: {}
